…
### Example - product reviews

This is a basic example which shows you how to get reviews:

``` r
# Get reviews for 'The Art of R Programming: A Tour of Statistical Software Design'
reviews <- Rmazon::get_reviews("1593273843")
#> Fetching 122 reviews of 'The Art of R Programming: A Tour of Statistical Software Design'

# Have a look at the data
reviews
#> # A tibble: 122 × 6
#>    reviewRating        reviewDate reviewFormat Verified_Purchase
#> *         <dbl>             <chr>        <chr>             <lgl>
#> 1             5  November 4, 2011    Paperback              TRUE
#> 2             5  October 30, 2011    Paperback             FALSE
#> 3             4  January 15, 2012    Paperback              TRUE
#> 4             3      July 6, 2012    Paperback              TRUE
#> 5             5  November 1, 2011    Paperback             FALSE
#> 6             3  January 28, 2014    Paperback              TRUE
#> 7             1    March 18, 2015    Paperback              TRUE
#> 8             5 November 28, 2011    Paperback             FALSE
#> 9             3    March 20, 2013    Paperback              TRUE
#> 10            3    April 24, 2013    Paperback             FALSE
#> # ... with 112 more rows, and 2 more variables: reviewHeadline <chr>,
#> #   reviewText <chr>
```
…
